…
8.  Create a graph that has at least two geom layers.
9.  Create 3 histograms, with each histogram having different sized
    bins. Pick the “best” one and explain why it is the best.

Make sure it’s clear what research question you are doing each operation
for!

<!------------------------- Start your work below ----------------------------->

``` r
#Table of apt dataset to check in with while working
head(apt_buildings, n=30)
```

    ## # A tibble: 30 × 37
    ##       id air_conditioning amenities             balconies barrier_free_accessi…¹
    ##    <dbl> <chr>            <chr>                 <chr>     <chr>                 
    ##  1 10359 NONE             Outdoor rec faciliti… YES       YES                   
    ##  2 10360 NONE             Outdoor pool          YES       NO                    
    ##  3 10361 NONE             <NA>                  YES       NO                    
    ##  4 10362 NONE             <NA>                  YES       YES                   
    ##  5 10363 NONE             <NA>                  NO        NO                    
    ##  6 10364 NONE             <NA>                  NO        NO                    
    ##  7 10365 NONE             <NA>                  NO        YES                   
    ##  8 10366 CENTRAL AIR      Indoor pool , Indoor… YES       NO                    
    ##  9 10367 NONE             <NA>                  YES       YES                   
    ## 10 10368 NONE             Indoor recreation ro… YES       YES                   
    ## # ℹ 20 more rows
    ## # ℹ abbreviated name: ¹​barrier_free_accessibilty_entr
    ## # ℹ 32 more variables: bike_parking <chr>, exterior_fire_escape <chr>,
    ## #   fire_alarm <chr>, garbage_chutes <chr>, heating_type <chr>, intercom <chr>,
    ## #   laundry_room <chr>, locker_or_storage_room <chr>, no_of_elevators <dbl>,
    ## #   parking_type <chr>, pets_allowed <chr>, prop_management_company_name <chr>,
    ## #   property_type <chr>, rsn <dbl>, separate_gas_meters <chr>, …
…
``` r
#filtered for large management companies. 1363 buildings do not have a property manager. The second highest has 115 and is TCH.

#Graphing the wards and year built for TCH buildings (7, need alpha transparency)

year_ward_TCH <- apt_buildings %>%
  select(prop_management_company_name, year_built, ward) %>%
  filter(prop_management_company_name == "TCH")
print(year_ward_TCH)
```

    ## # A tibble: 115 × 3
    ##    prop_management_company_name year_built ward 
    ##    <chr>                             <dbl> <chr>
    ##  1 TCH                                1965 01   
    ##  2 TCH                                1961 13   
    ##  3 TCH                                1955 19   
    ##  4 TCH                                1991 19   
    ##  5 TCH                                1980 13   
    ##  6 TCH                                1971 17   
    ##  7 TCH                                1980 13   
    ##  8 TCH                                1964 13   
    ##  9 TCH                                1969 14   
    ## 10 TCH                                1957 08   
    ## # ℹ 105 more rows
…
#### Question 2 Summary & Graphing

Q2: Can this dataset be used to determine “safe” buildings (in terms of
engineering and admin controls)? I will narrow down a list of buildings
and produce a histogram of the year built of the “safe” buildings.

``` r
safe_buildings <- apt_buildings %>%
  filter(fire_alarm == "YES", sprinkler_system == "YES", emergency_power == "YES", `non-smoking_building`=="YES") %>%
  select(id, year_built) 

  print(safe_buildings)
```

    ## # A tibble: 489 × 2
    ##       id year_built
    ##    <dbl>      <dbl>
    ##  1 10366       1971
    ##  2 10368       1972
    ##  3 10384       1971
    ##  4 10386       2005
    ##  5 10392       2011
    ##  6 10396       1980
    ##  7 10405       1967
    ##  8 10406       1965
    ##  9 10414       1959
    ## 10 10421       1941
    ## # ℹ 479 more rows
…
Be sure to explain your reasoning for this task. Show us the “before”
and “after”.

<!--------------------------- Start your work below --------------------------->

``` r
#First, I will make a tibble of 8 columns that are tidy. Then, I will un-tidy the data by expanding (pivot_wider) based on ___

tidy_tbl <- apt_buildings %>%
  select(id, site_address, property_type, `non-smoking_building`, no_of_units, year_built, no_of_storeys, ward)
print(tidy_tbl)
```

    ## # A tibble: 3,455 × 8
    ##       id site_address         property_type `non-smoking_building` no_of_units
    ##    <dbl> <chr>                <chr>         <chr>                        <dbl>
    ##  1 10359 65  FOREST MANOR RD  PRIVATE       YES                            218
    ##  2 10360 70  CLIPPER RD       PRIVATE       NO                             206
    ##  3 10361 2651  BLOOR ST W     PRIVATE       YES                             34
    ##  4 10362 22  BURNHAMTHORPE RD PRIVATE       YES                             42
    ##  5 10363 18  ANGLESEY BLVD    PRIVATE       YES                             25
    ##  6 10364 308  THE KINGSWAY    PRIVATE       NO                              34
    ##  7 10365 3  BEXHILL CRT       PRIVATE       NO                              14
    ##  8 10366 41  WARRENDER AVE    PRIVATE       YES                            105
    ##  9 10367 280  WELLESLEY ST E  PRIVATE       NO                             571
    ## 10 10368 11  ARLETA AVE       TCHC          YES                            171
    ## # ℹ 3,445 more rows
    ## # ℹ 3 more variables: year_built <dbl>, no_of_storeys <dbl>, ward <chr>

``` r
#Un-tidying!

untidy_tbl <- tidy_tbl %>%
  pivot_wider(names_from = `non-smoking_building`, values_from = year_built)
print(untidy_tbl)
```

    ## # A tibble: 3,455 × 9
    ##       id site_address  property_type no_of_units no_of_storeys ward    YES    NO
    ##    <dbl> <chr>         <chr>               <dbl>         <dbl> <chr> <dbl> <dbl>
    ##  1 10359 65  FOREST M… PRIVATE               218            17 17     1967    NA
    ##  2 10360 70  CLIPPER … PRIVATE               206            14 17       NA  1970
    ##  3 10361 2651  BLOOR … PRIVATE                34             4 03     1927    NA
    ##  4 10362 22  BURNHAMT… PRIVATE                42             5 03     1959    NA
    ##  5 10363 18  ANGLESEY… PRIVATE                25             4 02     1943    NA
    ##  6 10364 308  THE KIN… PRIVATE                34             4 02       NA  1952
    ##  7 10365 3  BEXHILL C… PRIVATE                14             4 02       NA  1959
    ##  8 10366 41  WARRENDE… PRIVATE               105             7 02     1971    NA
    ##  9 10367 280  WELLESL… PRIVATE               571            32 13       NA  1969
    ## 10 10368 11  ARLETA A… TCHC                  171             4 07     1972    NA
    ## # ℹ 3,445 more rows
    ## # ℹ 1 more variable: `NA` <dbl>

``` r
#This tbl is untidy because there lacks an observation for at least two columns of the "smoking" status for each year, as each building can only belong to one of the categories. It does not make sense to show the data like this. 

#Tidy it back!

retidy_tbl <- untidy_tbl %>%
  pivot_longer(cols = c('YES', 'NO', 'NA'), 
               names_to = "`non-smoking_building`",
               values_to = ("year_built"))
print(retidy_tbl)
```

    ## # A tibble: 10,365 × 8
    ##       id site_address         property_type no_of_units no_of_storeys ward 
    ##    <dbl> <chr>                <chr>               <dbl>         <dbl> <chr>
    ##  1 10359 65  FOREST MANOR RD  PRIVATE               218            17 17   
    ##  2 10359 65  FOREST MANOR RD  PRIVATE               218            17 17   
    ##  3 10359 65  FOREST MANOR RD  PRIVATE               218            17 17   
    ##  4 10360 70  CLIPPER RD       PRIVATE               206            14 17   
    ##  5 10360 70  CLIPPER RD       PRIVATE               206            14 17   
    ##  6 10360 70  CLIPPER RD       PRIVATE               206            14 17   
    ##  7 10361 2651  BLOOR ST W     PRIVATE                34             4 03   
    ##  8 10361 2651  BLOOR ST W     PRIVATE                34             4 03   
    ##  9 10361 2651  BLOOR ST W     PRIVATE                34             4 03   
    ## 10 10362 22  BURNHAMTHORPE RD PRIVATE                42             5 03   
    ## # ℹ 10,355 more rows
    ## # ℹ 2 more variables: `\`non-smoking_building\`` <chr>, year_built <dbl>
…
    ## Warning: There was 1 warning in `filter()`.
    ## ℹ In argument: ``non-smoking_building` == c("YES", "NO")`.
    ## Caused by warning in `` `non-smoking_building` == c("YES", "NO") ``:
    ## ! longer object length is not a multiple of shorter object length

``` r
  print(apt_tidy)
```

    ## # A tibble: 824 × 9
    ##    year_built property_type `non-smoking_building` pets_allowed no_of_units
    ##         <dbl> <chr>         <chr>                  <chr>              <dbl>
    ##  1       1890 PRIVATE       NO                     YES                   16
    ##  2       1900 PRIVATE       NO                     NO                    18
    ##  3       1900 PRIVATE       NO                     YES                   30
    ##  4       1904 PRIVATE       NO                     YES                   32
    ##  5       1905 PRIVATE       NO                     YES                   24
    ##  6       1905 PRIVATE       YES                    NO                    18
    ##  7       1907 PRIVATE       YES                    YES                   17
    ##  8       1910 PRIVATE       YES                    YES                   10
    ##  9       1910 PRIVATE       NO                     YES                   18
    ## 10       1910 PRIVATE       NO                     YES                   44
    ## # ℹ 814 more rows
    ## # ℹ 4 more variables: no_of_storeys <dbl>, ward <chr>, units_by_storeys <dbl>,
    ## #   build_age <dbl>
…
